<?xml version="1.0" encoding="UTF-8" standalone="no"?>
<svg
   xmlns:dc="http://purl.org/dc/elements/1.1/"
   xmlns:cc="http://creativecommons.org/ns#"
   xmlns:rdf="http://www.w3.org/1999/02/22-rdf-syntax-ns#"
   xmlns:svg="http://www.w3.org/2000/svg"
   xmlns="http://www.w3.org/2000/svg"
   xmlns:sodipodi="http://sodipodi.sourceforge.net/DTD/sodipodi-0.dtd"
   xmlns:inkscape="http://www.inkscape.org/namespaces/inkscape"
   version="1.1"
   x="0px"
   y="0px"
   width="1920px"
   height="1080px"
   viewBox="0 0 1920 1080"
   enable-background="new 0 0 1920 1080"
   xml:space="preserve"
   id="svg16761"
   sodipodi:docname="Apertis Graphics-06-GL.svg"
   inkscape:version="0.92.5 (2060ec1f9f, 2020-04-08)"
   inkscape:export-filename="/home/guy/tmp/Valerio-Apertis-Slides/Bosch Apertis Graphics 2021/Dirk-20221109/6.png"
   inkscape:export-xdpi="100"
   inkscape:export-ydpi="100"><metadata
   id="metadata16767"><rdf:RDF><cc:Work
       rdf:about=""><dc:format>image/svg+xml</dc:format><dc:type
         rdf:resource="http://purl.org/dc/dcmitype/StillImage" /><dc:title></dc:title></cc:Work></rdf:RDF></metadata><defs
   id="defs16765">
	
	
		
	
		
	
	
	
	
	
</defs><sodipodi:namedview
   pagecolor="#ffffff"
   bordercolor="#666666"
   borderopacity="1"
   objecttolerance="10"
   gridtolerance="10"
   guidetolerance="10"
   inkscape:pageopacity="0"
   inkscape:pageshadow="2"
   inkscape:window-width="3440"
   inkscape:window-height="1376"
   id="namedview16763"
   showgrid="false"
   inkscape:zoom="1"
   inkscape:cx="960"
   inkscape:cy="446.03022"
   inkscape:window-x="0"
   inkscape:window-y="27"
   inkscape:window-maximized="1"
   inkscape:current-layer="svg16761" />

<g
   id="Layer_1">
	
	
	
	
	
	
	<g
   id="g16040"
   inkscape:export-filename="/home/guy/tmp/Valerio-Apertis-Slides/exports-20210301/6.png"
   inkscape:export-xdpi="82.120003"
   inkscape:export-ydpi="82.120003"
   transform="translate(552.96819,359.64254)">
		<rect
   x="336.36301"
   y="352.54099"
   stroke-miterlimit="10"
   width="214.347"
   height="39.397999"
   id="rect15966"
   style="fill:#009db7;stroke:#ffffff;stroke-miterlimit:10" />
		<g
   id="g15972">
			<rect
   x="336.20001"
   y="362.90302"
   width="214.672"
   height="14.82"
   id="rect15968"
   style="fill:none" />
			<text
   transform="translate(384.6455,377.5957)"
   font-size="20.349"
   id="text15970"
   style="font-size:20.34900093px;font-family:Karla;fill:#ffffff">Applications</text>



		</g>
		<rect
   x="336.36301"
   y="391.939"
   stroke-miterlimit="10"
   width="214.347"
   height="39.398998"
   id="rect15974"
   style="fill:#009db7;stroke:#ffffff;stroke-miterlimit:10" />
		<g
   id="g15980">
			<rect
   x="336.20001"
   y="402.302"
   width="214.672"
   height="14.822"
   id="rect15976"
   style="fill:none" />
			<text
   transform="translate(388.125,416.9941)"
   font-size="20.349"
   id="text15978"
   style="font-size:20.34900093px;font-family:Karla;fill:#ffffff">Middleware</text>



		</g>
		<rect
   x="336.36301"
   y="431.17499"
   stroke-miterlimit="10"
   width="214.347"
   height="39.397999"
   id="rect15982"
   style="fill:#009db7;stroke:#ffffff;stroke-miterlimit:10" />
		<g
   id="g15988">
			<rect
   x="336.20001"
   y="441.53601"
   width="214.672"
   height="14.822"
   id="rect15984"
   style="fill:none" />
			<text
   transform="translate(361.1826,456.2285)"
   font-size="20.349"
   id="text15986"
   style="font-size:20.34900093px;font-family:Karla;fill:#ffffff">Networking stack</text>



		</g>
		<rect
   x="336.36301"
   y="470.409"
   stroke-miterlimit="10"
   width="214.347"
   height="39.397999"
   id="rect15990"
   style="fill:#3e3e77;stroke:#ffffff;stroke-miterlimit:10" />
		<g
   id="g15996">
			<rect
   x="336.20001"
   y="480.771"
   width="214.672"
   height="14.822"
   id="rect15992"
   style="fill:none" />
			<text
   transform="translate(368.6104,495.4629)"
   font-size="20.349"
   id="text15994"
   style="font-size:20.34900093px;font-family:Karla;fill:#ffffff">Base filesystem</text>



		</g>
		<rect
   x="336.36301"
   y="509.64401"
   stroke-miterlimit="10"
   width="214.347"
   height="39.397999"
   id="rect15998"
   style="fill:#3e3e77;stroke:#ffffff;stroke-miterlimit:10" />
		<g
   id="g16004">
			<rect
   x="336.20001"
   y="520.005"
   width="214.672"
   height="14.822"
   id="rect16000"
   style="fill:none" />
			<text
   transform="translate(412.7676,534.6973)"
   font-size="20.349"
   id="text16002"
   style="font-size:20.34900093px;font-family:Karla;fill:#ffffff">Kernel</text>



		</g>
		<rect
   x="336.36301"
   y="548.87799"
   stroke-miterlimit="10"
   width="214.347"
   height="39.397999"
   id="rect16006"
   style="fill:#3e3e77;stroke:#ffffff;stroke-miterlimit:10" />
		<g
   id="g16012">
			<rect
   x="336.20001"
   y="559.23901"
   width="214.672"
   height="14.822"
   id="rect16008"
   style="fill:none" />
			<text
   transform="translate(391.5742,573.9316)"
   font-size="20.349"
   id="text16010"
   style="font-size:20.34900093px;font-family:Karla;fill:#ffffff">Bootloader</text>



		</g>
		<polygon
   stroke-miterlimit="10"
   points="574.844,326.467 550.71,352.541 336.363,352.541 362.438,326.467 "
   id="polygon16014"
   style="fill:#30b8c6;stroke:#ffffff;stroke-miterlimit:10" />
		<polyline
   stroke-miterlimit="10"
   points="574.844,326.467 550.71,352.541 550.71,391.775     574.844,367.529   "
   id="polyline16016"
   style="fill:#027c89;stroke:#ffffff;stroke-miterlimit:10" />
		<polyline
   stroke-miterlimit="10"
   points="574.844,366.193 550.71,392.269 550.71,431.503     574.844,407.256   "
   id="polyline16018"
   style="fill:#027c89;stroke:#ffffff;stroke-miterlimit:10" />
		<polyline
   stroke-miterlimit="10"
   points="574.844,405.592 550.71,431.667 550.71,470.901     574.844,446.654   "
   id="polyline16020"
   style="fill:#027c89;stroke:#ffffff;stroke-miterlimit:10" />
		<polyline
   stroke-miterlimit="10"
   points="574.844,444.99 550.71,471.065 550.71,510.3     574.844,486.054   "
   id="polyline16022"
   style="fill:#292954;stroke:#ffffff;stroke-miterlimit:10" />
		<polyline
   stroke-miterlimit="10"
   points="574.844,484.39 550.71,510.464 550.71,549.698     574.844,525.452   "
   id="polyline16024"
   style="fill:#292954;stroke:#ffffff;stroke-miterlimit:10" />
		<polyline
   stroke-miterlimit="10"
   points="574.844,523.788 550.71,549.862 550.71,589.097     574.844,564.851   "
   id="polyline16026"
   style="fill:#292954;stroke:#ffffff;stroke-miterlimit:10" />
		<g
   id="g16034">
			<path
   d="m 547.171,268.505 c 0,5.424 -4.438,9.861 -9.862,9.861 H 405.486 c -5.424,0 -9.861,-4.438 -9.861,-9.861 v -28.483 c 0,-5.424 4.438,-9.861 9.861,-9.861 h 131.822 c 5.425,0 9.862,4.438 9.862,9.861 v 28.483 z"
   id="path16028"
   inkscape:connector-curvature="0"
   style="fill:#009db7" />
			<path
   d="m 395.625,253.771 v 14.734 c 0,5.424 4.438,9.861 9.861,9.861 h 131.822 c 5.425,0 9.862,-4.438 9.862,-9.861 v -14.734 z"
   id="path16030"
   inkscape:connector-curvature="0"
   style="fill:#009db7" />
			<text
   font-size="20.349"
   id="text16032"
   style="font-size:20.34900093px;font-family:Karla;fill:#ffffff"
   x="413.21011"
   y="260.66327">PRODUCT #2</text>



		</g>
		<text
   font-size="19.4643"
   id="text16036"
   style="font-size:19.46430016px;fill:#009db7"
   x="425.15091"
   y="311.79489"><tspan
     style="font-style:normal;font-variant:normal;font-weight:normal;font-stretch:normal;font-family:Karla;-inkscape-font-specification:Karla"
     id="tspan17335">Power Tool</tspan></text>



		<polygon
   points="463.338,278.367 479.458,278.367 471.396,289.466 "
   id="polygon16038"
   style="fill:#2e2e30" />
	</g>
	<g
   id="g16126"
   inkscape:export-filename="/home/guy/tmp/Valerio-Apertis-Slides/exports-20210301/6.png"
   inkscape:export-xdpi="82.120003"
   inkscape:export-ydpi="82.120003"
   transform="translate(62.546532,-376.70069)">
		<rect
   x="558.34802"
   y="645.42401"
   stroke-miterlimit="10"
   width="214.347"
   height="39.397999"
   id="rect16042"
   style="fill:#009db7;stroke:#ffffff;stroke-miterlimit:10" />
		<g
   id="g16048">
			<rect
   x="558.185"
   y="655.78601"
   width="214.672"
   height="14.82"
   id="rect16044"
   style="fill:none" />
			<text
   transform="translate(606.6309,670.4785)"
   font-size="20.349"
   id="text16046"
   style="font-size:20.34900093px;font-family:Karla;fill:#ffffff">Applications</text>



		</g>
		<rect
   x="558.34802"
   y="684.65802"
   stroke-miterlimit="10"
   width="214.347"
   height="39.398998"
   id="rect16050"
   style="fill:#009db7;stroke:#ffffff;stroke-miterlimit:10" />
		<g
   id="g16056">
			<rect
   x="558.185"
   y="695.021"
   width="214.672"
   height="14.822"
   id="rect16052"
   style="fill:none" />
			<text
   transform="translate(582.1719,709.7129)"
   font-size="20.349"
   id="text16054"
   style="font-size:20.34900093px;font-family:Karla;fill:#ffffff">Graphics libraries</text>



		</g>
		<rect
   x="558.34802"
   y="723.89301"
   stroke-miterlimit="10"
   width="214.347"
   height="39.398998"
   id="rect16058"
   style="fill:#3e3e77;stroke:#ffffff;stroke-miterlimit:10" />
		<g
   id="g16064">
			<rect
   x="558.185"
   y="734.255"
   width="214.672"
   height="14.822"
   id="rect16060"
   style="fill:none" />
			<text
   transform="translate(610.1104,748.9473)"
   font-size="20.349"
   id="text16062"
   style="font-size:20.34900093px;font-family:Karla;fill:#ffffff">Middleware</text>



		</g>
		<rect
   x="558.34802"
   y="763.12799"
   stroke-miterlimit="10"
   width="214.347"
   height="39.397999"
   id="rect16066"
   style="fill:#3e3e77;stroke:#ffffff;stroke-miterlimit:10" />
		<g
   id="g16072">
			<rect
   x="558.185"
   y="773.48901"
   width="214.672"
   height="14.822"
   id="rect16068"
   style="fill:none" />
			<text
   transform="translate(583.168,788.1816)"
   font-size="20.349"
   id="text16070"
   style="font-size:20.34900093px;font-family:Karla;fill:#ffffff">Networking stack</text>



		</g>
		<rect
   x="558.34802"
   y="802.362"
   stroke-miterlimit="10"
   width="214.347"
   height="39.397999"
   id="rect16074"
   style="fill:#3e3e77;stroke:#ffffff;stroke-miterlimit:10" />
		<g
   id="g16080">
			<rect
   x="558.185"
   y="812.724"
   width="214.672"
   height="14.822"
   id="rect16076"
   style="fill:none" />
			<text
   transform="translate(590.5957,827.416)"
   font-size="20.349"
   id="text16078"
   style="font-size:20.34900093px;font-family:Karla;fill:#ffffff">Base filesystem</text>



		</g>
		<rect
   x="558.34802"
   y="841.59698"
   stroke-miterlimit="10"
   width="214.347"
   height="39.397999"
   id="rect16082"
   style="fill:#3e3e77;stroke:#ffffff;stroke-miterlimit:10" />
		<g
   id="g16088">
			<rect
   x="558.185"
   y="851.95801"
   width="214.672"
   height="14.822"
   id="rect16084"
   style="fill:none" />
			<text
   transform="translate(634.7529,866.6504)"
   font-size="20.349"
   id="text16086"
   style="font-size:20.34900093px;font-family:Karla;fill:#ffffff">Kernel</text>



		</g>
		<rect
   x="558.34802"
   y="880.83099"
   stroke-miterlimit="10"
   width="214.347"
   height="39.397999"
   id="rect16090"
   style="fill:#3e3e77;stroke:#ffffff;stroke-miterlimit:10" />
		<g
   id="g16096">
			<rect
   x="558.185"
   y="891.19202"
   width="214.672"
   height="14.822"
   id="rect16092"
   style="fill:none" />
			<text
   transform="translate(613.5596,905.8848)"
   font-size="20.349"
   id="text16094"
   style="font-size:20.34900093px;font-family:Karla;fill:#ffffff">Bootloader</text>



		</g>
		<polygon
   stroke-miterlimit="10"
   points="772.694,645.424 558.348,645.424 584.422,619.35 796.828,619.35 "
   id="polygon16098"
   style="fill:#30b8c6;stroke:#ffffff;stroke-miterlimit:10" />
		<polyline
   stroke-miterlimit="10"
   points="796.828,619.35 772.694,645.424 772.694,684.658     796.828,660.412   "
   id="polyline16100"
   style="fill:#027c89;stroke:#ffffff;stroke-miterlimit:10" />
		<polyline
   stroke-miterlimit="10"
   points="796.828,658.748 772.694,684.822 772.694,724.058     796.828,699.811   "
   id="polyline16102"
   style="fill:#027c89;stroke:#ffffff;stroke-miterlimit:10" />
		<polyline
   stroke-miterlimit="10"
   points="796.828,698.146 772.694,724.222 772.694,763.456     796.828,739.209   "
   id="polyline16104"
   style="fill:#292954;stroke:#ffffff;stroke-miterlimit:10" />
		<polyline
   stroke-miterlimit="10"
   points="796.828,737.545 772.694,763.62 772.694,802.854     796.828,778.607   "
   id="polyline16106"
   style="fill:#292954;stroke:#ffffff;stroke-miterlimit:10" />
		<polyline
   stroke-miterlimit="10"
   points="796.828,776.943 772.694,803.019 772.694,842.253     796.828,818.007   "
   id="polyline16108"
   style="fill:#292954;stroke:#ffffff;stroke-miterlimit:10" />
		<polyline
   stroke-miterlimit="10"
   points="796.828,816.343 772.694,842.417 772.694,881.651     796.828,857.405   "
   id="polyline16110"
   style="fill:#292954;stroke:#ffffff;stroke-miterlimit:10" />
		<polyline
   stroke-miterlimit="10"
   points="796.828,855.741 772.694,881.815 772.694,921.05     796.828,896.804   "
   id="polyline16112"
   style="fill:#292954;stroke:#ffffff;stroke-miterlimit:10" />
		<g
   id="g16120">
			<path
   d="m 769.155,561.388 c 0,5.424 -4.438,9.861 -9.862,9.861 H 627.471 c -5.424,0 -9.861,-4.438 -9.861,-9.861 v -28.483 c 0,-5.424 4.438,-9.861 9.861,-9.861 h 131.822 c 5.425,0 9.862,4.438 9.862,9.861 z"
   id="path16114"
   inkscape:connector-curvature="0"
   style="fill:#009db7" />
			<path
   d="m 617.609,546.653 v 14.734 c 0,5.424 4.438,9.861 9.861,9.861 h 131.822 c 5.425,0 9.862,-4.438 9.862,-9.861 v -14.734 z"
   id="path16116"
   inkscape:connector-curvature="0"
   style="fill:#009db7" />
			<text
   font-size="20.349"
   id="text16118"
   style="font-size:20.34900093px;font-family:Karla;fill:#ffffff"
   x="638.07397"
   y="553.54626">PRODUCT #1</text>



		</g>
		<text
   font-size="19.4643"
   id="text16122"
   x="641.01465"
   y="606.67767"
   style="font-size:19.46430016px;fill:#009db7">Custom IVI</text>



		<polygon
   points="701.442,571.25 693.381,582.349 685.322,571.25 "
   id="polygon16124"
   style="fill:#2e2e30" />
	</g>
	<g
   id="g16202"
   inkscape:export-filename="/home/guy/tmp/Valerio-Apertis-Slides/exports-20210301/6.png"
   inkscape:export-xdpi="82.120003"
   inkscape:export-ydpi="82.120003"
   transform="translate(129.3576,-439.24722)">
		<rect
   x="1383.9919"
   y="684.82202"
   stroke-miterlimit="10"
   width="214.347"
   height="39.397999"
   id="rect16128"
   style="fill:#009db7;stroke:#ffffff;stroke-miterlimit:10" />
		<g
   id="g16134">
			<rect
   x="1383.829"
   y="695.185"
   width="214.672"
   height="14.82"
   id="rect16130"
   style="fill:none" />
			<text
   transform="translate(1432.2754,709.877)"
   font-size="20.349"
   id="text16132"
   style="font-size:20.34900093px;font-family:Karla;fill:#ffffff">Applications</text>



		</g>
		<rect
   x="1383.9919"
   y="723.89398"
   stroke-miterlimit="10"
   width="214.347"
   height="39.398998"
   id="rect16136"
   style="fill:#3e3e77;stroke:#ffffff;stroke-miterlimit:10" />
		<g
   id="g16142">
			<rect
   x="1383.829"
   y="734.25598"
   width="214.672"
   height="14.822"
   id="rect16138"
   style="fill:none" />
			<text
   transform="translate(1435.7559,748.9473)"
   font-size="20.349"
   id="text16140"
   style="font-size:20.34900093px;font-family:Karla;fill:#ffffff">Middleware</text>



		</g>
		<rect
   x="1383.9919"
   y="763.12903"
   stroke-miterlimit="10"
   width="214.347"
   height="39.397999"
   id="rect16144"
   style="fill:#3e3e77;stroke:#ffffff;stroke-miterlimit:10" />
		<g
   id="g16150">
			<rect
   x="1383.829"
   y="773.48999"
   width="214.672"
   height="14.822"
   id="rect16146"
   style="fill:none" />
			<text
   transform="translate(1408.8125,788.1816)"
   font-size="20.349"
   id="text16148"
   style="font-size:20.34900093px;font-family:Karla;fill:#ffffff">Networking stack</text>



		</g>
		<rect
   x="1383.9919"
   y="802.36298"
   stroke-miterlimit="10"
   width="214.347"
   height="39.397999"
   id="rect16152"
   style="fill:#3e3e77;stroke:#ffffff;stroke-miterlimit:10" />
		<g
   id="g16158">
			<rect
   x="1383.829"
   y="812.72498"
   width="214.672"
   height="14.822"
   id="rect16154"
   style="fill:none" />
			<text
   transform="translate(1416.2402,827.416)"
   font-size="20.349"
   id="text16156"
   style="font-size:20.34900093px;font-family:Karla;fill:#ffffff">Base filesystem</text>



		</g>
		<rect
   x="1383.9919"
   y="841.59802"
   stroke-miterlimit="10"
   width="214.347"
   height="39.397999"
   id="rect16160"
   style="fill:#009db7;stroke:#ffffff;stroke-miterlimit:10" />
		<g
   id="g16166">
			<rect
   x="1383.829"
   y="851.95898"
   width="214.672"
   height="14.822"
   id="rect16162"
   style="fill:none" />
			<text
   transform="translate(1460.3984,866.6504)"
   font-size="20.349"
   id="text16164"
   style="font-size:20.34900093px;font-family:Karla;fill:#ffffff">Kernel</text>



		</g>
		<rect
   x="1383.9919"
   y="880.83197"
   stroke-miterlimit="10"
   width="214.347"
   height="39.397999"
   id="rect16168"
   style="fill:#009db7;stroke:#ffffff;stroke-miterlimit:10" />
		<g
   id="g16174">
			<rect
   x="1383.829"
   y="891.19299"
   width="214.672"
   height="14.822"
   id="rect16170"
   style="fill:none" />
			<text
   transform="translate(1439.2051,905.8848)"
   font-size="20.349"
   id="text16172"
   style="font-size:20.34900093px;font-family:Karla;fill:#ffffff">Bootloader</text>



		</g>
		<polygon
   stroke-miterlimit="10"
   points="1410.066,658.748 1622.473,658.748 1598.339,684.822 1383.992,684.822 "
   id="polygon16176"
   style="fill:#30b8c6;stroke:#ffffff;stroke-miterlimit:10" />
		<polyline
   stroke-miterlimit="10"
   points="1622.473,658.748 1598.339,684.822 1598.339,724.057     1622.473,699.811   "
   id="polyline16178"
   style="fill:#027c89;stroke:#ffffff;stroke-miterlimit:10" />
		<polyline
   stroke-miterlimit="10"
   points="1622.473,698.147 1598.339,724.223 1598.339,763.457     1622.473,739.21   "
   id="polyline16180"
   style="fill:#292954;stroke:#ffffff;stroke-miterlimit:10" />
		<polyline
   stroke-miterlimit="10"
   points="1622.473,737.546 1598.339,763.621 1598.339,802.855     1622.473,778.608   "
   id="polyline16182"
   style="fill:#292954;stroke:#ffffff;stroke-miterlimit:10" />
		<polyline
   stroke-miterlimit="10"
   points="1622.473,776.944 1598.339,803.02 1598.339,842.254     1622.473,818.008   "
   id="polyline16184"
   style="fill:#292954;stroke:#ffffff;stroke-miterlimit:10" />
		<polyline
   stroke-miterlimit="10"
   points="1622.473,816.344 1598.339,842.418 1598.339,881.652     1622.473,857.406   "
   id="polyline16186"
   style="fill:#027c89;stroke:#ffffff;stroke-miterlimit:10" />
		<polyline
   stroke-miterlimit="10"
   points="1622.473,855.742 1598.339,881.816 1598.339,921.051     1622.473,896.805   "
   id="polyline16188"
   style="fill:#027c89;stroke:#ffffff;stroke-miterlimit:10" />
		<g
   id="g16196">
			<path
   d="m 1594.8,600.786 c 0,5.424 -4.438,9.861 -9.862,9.861 h -131.822 c -5.424,0 -9.861,-4.438 -9.861,-9.861 v -28.483 c 0,-5.424 4.438,-9.861 9.861,-9.861 h 131.822 c 5.425,0 9.862,4.438 9.862,9.861 z"
   id="path16190"
   inkscape:connector-curvature="0"
   style="fill:#009db7" />
			<path
   d="m 1443.254,586.052 v 14.734 c 0,5.424 4.438,9.861 9.861,9.861 h 131.822 c 5.425,0 9.862,-4.438 9.862,-9.861 v -14.734 z"
   id="path16192"
   inkscape:connector-curvature="0"
   style="fill:#009db7" />
			<text
   font-size="20.349"
   id="text16194"
   style="font-size:20.34900093px;font-family:Karla;fill:#ffffff"
   x="1460.5955"
   y="592.94427">PRODUCT #4</text>



		</g>
		<text
   font-size="19.4643"
   id="text16198"
   style="font-size:20px;fill:#009db7"
   x="1470.1071"
   y="646.07617"><tspan
     style="font-style:normal;font-variant:normal;font-weight:normal;font-stretch:normal;font-family:Karla;-inkscape-font-specification:Karla"
     id="tspan17333">Telematics</tspan></text>



		<polygon
   points="1510.967,610.648 1527.087,610.648 1519.025,621.747 "
   id="polygon16200"
   style="fill:#2e2e30" />
	</g>
	<g
   id="g16288"
   inkscape:export-filename="/home/guy/tmp/Valerio-Apertis-Slides/exports-20210301/6.png"
   inkscape:export-xdpi="82.120003"
   inkscape:export-ydpi="82.120003"
   transform="translate(63.968042,140.72969)">
		<rect
   x="1159.319"
   y="352.711"
   stroke-miterlimit="10"
   width="214.347"
   height="39.397999"
   id="rect16204"
   style="fill:#009db7;stroke:#ffffff;stroke-miterlimit:10" />
		<g
   id="g16210">
			<rect
   x="1159.156"
   y="363.073"
   width="214.672"
   height="14.82"
   id="rect16206"
   style="fill:none" />
			<text
   transform="translate(1207.6035,377.7656)"
   font-size="20.349"
   id="text16208"
   style="font-size:20.34900093px;font-family:Karla;fill:#ffffff">Applications</text>



		</g>
		<rect
   x="1159.319"
   y="391.94501"
   stroke-miterlimit="10"
   width="214.347"
   height="39.398998"
   id="rect16212"
   style="fill:#009db7;stroke:#ffffff;stroke-miterlimit:10" />
		<g
   id="g16218">
			<rect
   x="1159.156"
   y="402.30801"
   width="214.672"
   height="14.822"
   id="rect16214"
   style="fill:none" />
			<text
   transform="translate(1183.1445,417)"
   font-size="20.349"
   id="text16216"
   style="font-size:20.34900093px;font-family:Karla;fill:#ffffff">Graphics libraries</text>



		</g>
		<rect
   x="1159.319"
   y="431.17999"
   stroke-miterlimit="10"
   width="214.347"
   height="39.398998"
   id="rect16220"
   style="fill:#009db7;stroke:#ffffff;stroke-miterlimit:10" />
		<g
   id="g16226">
			<rect
   x="1159.156"
   y="441.54199"
   width="214.672"
   height="14.822"
   id="rect16222"
   style="fill:none" />
			<text
   transform="translate(1211.082,456.2344)"
   font-size="20.349"
   id="text16224"
   style="font-size:20.34900093px;font-family:Karla;fill:#ffffff">Middleware</text>



		</g>
		<rect
   x="1159.319"
   y="470.41501"
   stroke-miterlimit="10"
   width="214.347"
   height="39.397999"
   id="rect16228"
   style="fill:#009db7;stroke:#ffffff;stroke-miterlimit:10" />
		<g
   id="g16234">
			<rect
   x="1159.156"
   y="480.776"
   width="214.672"
   height="14.822"
   id="rect16230"
   style="fill:none" />
			<text
   transform="translate(1184.1406,495.4688)"
   font-size="20.349"
   id="text16232"
   style="font-size:20.34900093px;font-family:Karla;fill:#ffffff">Networking stack</text>



		</g>
		<rect
   x="1159.319"
   y="509.64899"
   stroke-miterlimit="10"
   width="214.347"
   height="39.397999"
   id="rect16236"
   style="fill:#3e3e77;stroke:#ffffff;stroke-miterlimit:10" />
		<g
   id="g16242">
			<rect
   x="1159.156"
   y="520.01099"
   width="214.672"
   height="14.822"
   id="rect16238"
   style="fill:none" />
			<text
   transform="translate(1191.5684,534.7031)"
   font-size="20.349"
   id="text16240"
   style="font-size:20.34900093px;font-family:Karla;fill:#ffffff">Base filesystem</text>



		</g>
		<rect
   x="1159.319"
   y="548.88397"
   stroke-miterlimit="10"
   width="214.347"
   height="39.397999"
   id="rect16244"
   style="fill:#3e3e77;stroke:#ffffff;stroke-miterlimit:10" />
		<g
   id="g16250">
			<rect
   x="1159.156"
   y="559.245"
   width="214.672"
   height="14.822"
   id="rect16246"
   style="fill:none" />
			<text
   transform="translate(1235.7246,573.9375)"
   font-size="20.349"
   id="text16248"
   style="font-size:20.34900093px;font-family:Karla;fill:#ffffff">Kernel</text>



		</g>
		<rect
   x="1159.319"
   y="588.11798"
   stroke-miterlimit="10"
   width="214.347"
   height="39.397999"
   id="rect16252"
   style="fill:#3e3e77;stroke:#ffffff;stroke-miterlimit:10" />
		<g
   id="g16258">
			<rect
   x="1159.156"
   y="598.479"
   width="214.672"
   height="14.822"
   id="rect16254"
   style="fill:none" />
			<text
   transform="translate(1214.5312,613.1719)"
   font-size="20.349"
   id="text16256"
   style="font-size:20.34900093px;font-family:Karla;fill:#ffffff">Bootloader</text>



		</g>
		<polygon
   stroke-miterlimit="10"
   points="1397.8,326.637 1373.666,352.711 1159.319,352.711 1185.394,326.637 "
   id="polygon16260"
   style="fill:#30b8c6;stroke:#ffffff;stroke-miterlimit:10" />
		<polyline
   stroke-miterlimit="10"
   points="1397.8,326.637 1373.666,352.711 1373.666,391.945     1397.8,367.699   "
   id="polyline16262"
   style="fill:#027c89;stroke:#ffffff;stroke-miterlimit:10" />
		<polyline
   stroke-miterlimit="10"
   points="1397.8,366.035 1373.666,392.109 1373.666,431.345     1397.8,407.098   "
   id="polyline16264"
   style="fill:#027c89;stroke:#ffffff;stroke-miterlimit:10" />
		<polyline
   stroke-miterlimit="10"
   points="1397.8,405.434 1373.666,431.509 1373.666,470.743     1397.8,446.496   "
   id="polyline16266"
   style="fill:#027c89;stroke:#ffffff;stroke-miterlimit:10" />
		<polyline
   stroke-miterlimit="10"
   points="1397.8,444.832 1373.666,470.907 1373.666,510.142     1397.8,485.895   "
   id="polyline16268"
   style="fill:#027c89;stroke:#ffffff;stroke-miterlimit:10" />
		<polyline
   stroke-miterlimit="10"
   points="1397.8,484.23 1373.666,510.306 1373.666,549.54     1397.8,525.294   "
   id="polyline16270"
   style="fill:#292954;stroke:#ffffff;stroke-miterlimit:10" />
		<polyline
   stroke-miterlimit="10"
   points="1397.8,523.63 1373.666,549.704 1373.666,588.938     1397.8,564.692   "
   id="polyline16272"
   style="fill:#292954;stroke:#ffffff;stroke-miterlimit:10" />
		<polyline
   stroke-miterlimit="10"
   points="1397.8,563.028 1373.666,589.103 1373.666,628.337     1397.8,604.091   "
   id="polyline16274"
   style="fill:#292954;stroke:#ffffff;stroke-miterlimit:10" />
		<g
   id="g16282">
			<path
   d="m 1370.127,268.675 c 0,5.424 -4.438,9.861 -9.862,9.861 h -131.822 c -5.424,0 -9.861,-4.438 -9.861,-9.861 v -28.483 c 0,-5.424 4.438,-9.861 9.861,-9.861 h 131.822 c 5.425,0 9.862,4.438 9.862,9.861 z"
   id="path16276"
   inkscape:connector-curvature="0"
   style="fill:#009db7" />
			<path
   d="m 1218.581,253.94 v 14.734 c 0,5.424 4.438,9.861 9.861,9.861 h 131.822 c 5.425,0 9.862,-4.438 9.862,-9.861 V 253.94 Z"
   id="path16278"
   inkscape:connector-curvature="0"
   style="fill:#009db7" />
			<text
   font-size="20.349"
   id="text16280"
   style="font-size:20.34900093px;font-family:Karla;fill:#ffffff"
   x="1236.0038"
   y="260.83325">PRODUCT #3</text>



		</g>
		<text
   font-size="19.4643"
   id="text16284"
   style="font-size:20px;font-family:Karla;fill:#009db7"
   x="1245.2141"
   y="313.96481">Custom IVI</text>



		<polygon
   points="1302.414,278.537 1294.353,289.636 1286.294,278.537 "
   id="polygon16286"
   style="fill:#2e2e30" />
	</g>
	<g
   id="g16374"
   transform="matrix(1.3339709,0,0,1.3339709,-1064.0779,-247.17058)">
		<rect
   x="854.84198"
   y="505.82401"
   stroke-miterlimit="10"
   width="214.34801"
   height="39.397999"
   id="rect16290"
   inkscape:export-filename="/home/guy/tmp/Valerio-Apertis-Slides/exports-20210301/6.png"
   inkscape:export-xdpi="82.120003"
   inkscape:export-ydpi="82.120003"
   style="fill:#3e3e77;stroke:#ffffff;stroke-miterlimit:10" />
		<g
   id="g16296"
   inkscape:export-filename="/home/guy/tmp/Valerio-Apertis-Slides/exports-20210301/6.png"
   inkscape:export-xdpi="82.120003"
   inkscape:export-ydpi="82.120003">
			<rect
   x="854.67999"
   y="516.18597"
   width="214.672"
   height="14.822"
   id="rect16292"
   style="fill:none" />
			<text
   transform="translate(903.127,530.876)"
   font-size="20.349"
   id="text16294"
   style="font-size:20.34900093px;font-family:Karla;fill:#ffffff">Applications</text>



		</g>
		<rect
   x="854.84198"
   y="545.05902"
   stroke-miterlimit="10"
   width="214.34801"
   height="39.397999"
   id="rect16298"
   inkscape:export-filename="/home/guy/tmp/Valerio-Apertis-Slides/exports-20210301/6.png"
   inkscape:export-xdpi="82.120003"
   inkscape:export-ydpi="82.120003"
   style="fill:#3e3e77;stroke:#ffffff;stroke-miterlimit:10" />
		<g
   id="g16304"
   inkscape:export-filename="/home/guy/tmp/Valerio-Apertis-Slides/exports-20210301/6.png"
   inkscape:export-xdpi="82.120003"
   inkscape:export-ydpi="82.120003">
			<rect
   x="854.67999"
   y="555.41998"
   width="214.672"
   height="14.822"
   id="rect16300"
   style="fill:none" />
			<text
   transform="translate(878.668,570.1104)"
   font-size="20.349"
   id="text16302"
   style="font-size:20.34900093px;font-family:Karla;fill:#ffffff">Graphics libraries</text>



		</g>
		<rect
   x="854.84198"
   y="584.29303"
   stroke-miterlimit="10"
   width="214.34801"
   height="39.397999"
   id="rect16306"
   inkscape:export-filename="/home/guy/tmp/Valerio-Apertis-Slides/exports-20210301/6.png"
   inkscape:export-xdpi="82.120003"
   inkscape:export-ydpi="82.120003"
   style="fill:#3e3e77;stroke:#ffffff;stroke-miterlimit:10" />
		<g
   id="g16312"
   inkscape:export-filename="/home/guy/tmp/Valerio-Apertis-Slides/exports-20210301/6.png"
   inkscape:export-xdpi="82.120003"
   inkscape:export-ydpi="82.120003">
			<rect
   x="854.67999"
   y="594.65399"
   width="214.672"
   height="14.822"
   id="rect16308"
   style="fill:none" />
			<text
   transform="translate(906.6064,609.3447)"
   font-size="20.349"
   id="text16310"
   style="font-size:20.34900093px;font-family:Karla;fill:#ffffff">Middleware</text>



		</g>
		<rect
   x="854.84198"
   y="623.52698"
   stroke-miterlimit="10"
   width="214.34801"
   height="39.397999"
   id="rect16314"
   inkscape:export-filename="/home/guy/tmp/Valerio-Apertis-Slides/exports-20210301/6.png"
   inkscape:export-xdpi="82.120003"
   inkscape:export-ydpi="82.120003"
   style="fill:#3e3e77;stroke:#ffffff;stroke-miterlimit:10" />
		<g
   id="g16320"
   inkscape:export-filename="/home/guy/tmp/Valerio-Apertis-Slides/exports-20210301/6.png"
   inkscape:export-xdpi="82.120003"
   inkscape:export-ydpi="82.120003">
			<rect
   x="854.67999"
   y="633.88898"
   width="214.672"
   height="14.822"
   id="rect16316"
   style="fill:none" />
			<text
   transform="translate(879.6641,648.5791)"
   font-size="20.349"
   id="text16318"
   style="font-size:20.34900093px;font-family:Karla;fill:#ffffff">Networking stack</text>



		</g>
		<rect
   x="854.84198"
   y="662.76202"
   stroke-miterlimit="10"
   width="214.34801"
   height="39.397999"
   id="rect16322"
   inkscape:export-filename="/home/guy/tmp/Valerio-Apertis-Slides/exports-20210301/6.png"
   inkscape:export-xdpi="82.120003"
   inkscape:export-ydpi="82.120003"
   style="fill:#3e3e77;stroke:#ffffff;stroke-miterlimit:10" />
		<g
   id="g16328"
   inkscape:export-filename="/home/guy/tmp/Valerio-Apertis-Slides/exports-20210301/6.png"
   inkscape:export-xdpi="82.120003"
   inkscape:export-ydpi="82.120003">
			<rect
   x="854.67999"
   y="673.12299"
   width="214.672"
   height="14.822"
   id="rect16324"
   style="fill:none" />
			<text
   transform="translate(887.0918,687.8135)"
   font-size="20.349"
   id="text16326"
   style="font-size:20.34900093px;font-family:Karla;fill:#ffffff">Base filesystem</text>



		</g>
		<rect
   x="854.84198"
   y="701.99597"
   stroke-miterlimit="10"
   width="214.34801"
   height="39.397999"
   id="rect16330"
   inkscape:export-filename="/home/guy/tmp/Valerio-Apertis-Slides/exports-20210301/6.png"
   inkscape:export-xdpi="82.120003"
   inkscape:export-ydpi="82.120003"
   style="fill:#3e3e77;stroke:#ffffff;stroke-miterlimit:10" />
		<g
   id="g16336"
   inkscape:export-filename="/home/guy/tmp/Valerio-Apertis-Slides/exports-20210301/6.png"
   inkscape:export-xdpi="82.120003"
   inkscape:export-ydpi="82.120003">
			<rect
   x="854.67999"
   y="712.35699"
   width="214.672"
   height="14.822"
   id="rect16332"
   style="fill:none" />
			<text
   transform="translate(931.248,727.0479)"
   font-size="20.349"
   id="text16334"
   style="font-size:20.34900093px;font-family:Karla;fill:#ffffff">Kernel</text>



		</g>
		<rect
   x="854.84198"
   y="741.22998"
   stroke-miterlimit="10"
   width="214.34801"
   height="39.397999"
   id="rect16338"
   inkscape:export-filename="/home/guy/tmp/Valerio-Apertis-Slides/exports-20210301/6.png"
   inkscape:export-xdpi="82.120003"
   inkscape:export-ydpi="82.120003"
   style="fill:#3e3e77;stroke:#ffffff;stroke-miterlimit:10" />
		<g
   id="g16344"
   inkscape:export-filename="/home/guy/tmp/Valerio-Apertis-Slides/exports-20210301/6.png"
   inkscape:export-xdpi="82.120003"
   inkscape:export-ydpi="82.120003">
			<rect
   x="854.67999"
   y="751.59198"
   width="214.672"
   height="14.822"
   id="rect16340"
   style="fill:none" />
			<text
   transform="translate(910.0547,766.2822)"
   font-size="20.349"
   id="text16342"
   style="font-size:20.34900093px;font-family:Karla;fill:#ffffff">Bootloader</text>



		</g>
		<polygon
   stroke-miterlimit="10"
   points="854.842,505.824 880.917,479.748 1093.322,479.748 1069.189,505.824 "
   id="polygon16346"
   inkscape:export-filename="/home/guy/tmp/Valerio-Apertis-Slides/exports-20210301/6.png"
   inkscape:export-xdpi="82.120003"
   inkscape:export-ydpi="82.120003"
   style="fill:#5f5f9b;stroke:#ffffff;stroke-miterlimit:10" />
		<polyline
   stroke-miterlimit="10"
   points="1093.322,479.748 1069.189,505.824 1069.189,545.059     1093.322,520.812   "
   id="polyline16348"
   inkscape:export-filename="/home/guy/tmp/Valerio-Apertis-Slides/exports-20210301/6.png"
   inkscape:export-xdpi="82.120003"
   inkscape:export-ydpi="82.120003"
   style="fill:#292954;stroke:#ffffff;stroke-miterlimit:10" />
		<polyline
   stroke-miterlimit="10"
   points="1093.322,519.148 1069.189,545.223 1069.189,584.457     1093.322,560.211   "
   id="polyline16350"
   inkscape:export-filename="/home/guy/tmp/Valerio-Apertis-Slides/exports-20210301/6.png"
   inkscape:export-xdpi="82.120003"
   inkscape:export-ydpi="82.120003"
   style="fill:#292954;stroke:#ffffff;stroke-miterlimit:10" />
		<polyline
   stroke-miterlimit="10"
   points="1093.322,558.547 1069.189,584.621 1069.189,623.855     1093.322,599.609   "
   id="polyline16352"
   inkscape:export-filename="/home/guy/tmp/Valerio-Apertis-Slides/exports-20210301/6.png"
   inkscape:export-xdpi="82.120003"
   inkscape:export-ydpi="82.120003"
   style="fill:#292954;stroke:#ffffff;stroke-miterlimit:10" />
		<polyline
   stroke-miterlimit="10"
   points="1093.322,597.945 1069.189,624.02 1069.189,663.254     1093.322,639.008   "
   id="polyline16354"
   inkscape:export-filename="/home/guy/tmp/Valerio-Apertis-Slides/exports-20210301/6.png"
   inkscape:export-xdpi="82.120003"
   inkscape:export-ydpi="82.120003"
   style="fill:#292954;stroke:#ffffff;stroke-miterlimit:10" />
		<polyline
   stroke-miterlimit="10"
   points="1093.322,637.344 1069.189,663.418 1069.189,702.652     1093.322,678.406   "
   id="polyline16356"
   inkscape:export-filename="/home/guy/tmp/Valerio-Apertis-Slides/exports-20210301/6.png"
   inkscape:export-xdpi="82.120003"
   inkscape:export-ydpi="82.120003"
   style="fill:#292954;stroke:#ffffff;stroke-miterlimit:10" />
		<polyline
   stroke-miterlimit="10"
   points="1093.322,676.742 1069.189,702.816 1069.189,742.051     1093.322,717.805   "
   id="polyline16358"
   inkscape:export-filename="/home/guy/tmp/Valerio-Apertis-Slides/exports-20210301/6.png"
   inkscape:export-xdpi="82.120003"
   inkscape:export-ydpi="82.120003"
   style="fill:#292954;stroke:#ffffff;stroke-miterlimit:10" />
		<polyline
   stroke-miterlimit="10"
   points="1093.322,716.141 1069.189,742.215 1069.189,781.449     1093.322,757.203   "
   id="polyline16360"
   inkscape:export-filename="/home/guy/tmp/Valerio-Apertis-Slides/exports-20210301/6.png"
   inkscape:export-xdpi="82.120003"
   inkscape:export-ydpi="82.120003"
   style="fill:#292954;stroke:#ffffff;stroke-miterlimit:10" />
		<g
   id="g16368"
   inkscape:export-filename="/home/guy/tmp/Valerio-Apertis-Slides/exports-20210301/6.png"
   inkscape:export-xdpi="82.120003"
   inkscape:export-ydpi="82.120003">
			<path
   d="m 1069.189,420.902 c 0,5.424 -4.438,9.861 -9.862,9.861 h -138.9 c -5.423,0 -9.86,-4.438 -9.86,-9.861 V 392.42 c 0,-5.424 4.438,-9.861 9.86,-9.861 h 138.9 c 5.425,0 9.862,4.438 9.862,9.861 z"
   id="path16362"
   inkscape:connector-curvature="0"
   style="fill:#3e3e77" />
			<path
   d="m 910.566,406.168 v 14.734 c 0,5.424 4.438,9.861 9.86,9.861 h 138.9 c 5.425,0 9.862,-4.438 9.862,-9.861 v -14.734 z"
   id="path16364"
   inkscape:connector-curvature="0"
   style="fill:#3e3e77" />
			<text
   font-size="20.349"
   id="text16366"
   style="font-size:20.34900093px;font-family:Karla;fill:#ffffff"
   x="929.51282"
   y="413.06076">REFERENCES</text>



		</g>
		<text
   font-size="19.4643"
   id="text16370"
   x="883.22662"
   y="467.0752"
   style="font-size:20px;fill:#3e3e77"
   inkscape:export-filename="/home/guy/tmp/Valerio-Apertis-Slides/exports-20210301/6.png"
   inkscape:export-xdpi="82.120003"
   inkscape:export-ydpi="82.120003"><tspan
     style="font-style:normal;font-variant:normal;font-weight:normal;font-stretch:normal;font-family:sans-serif;-inkscape-font-specification:sans-serif"
     id="tspan1223">100% APERTIS Based</tspan></text>



		<polygon
   points="989.877,441.863 981.816,430.766 997.938,430.766 "
   id="polygon16372"
   inkscape:export-filename="/home/guy/tmp/Valerio-Apertis-Slides/exports-20210301/6.png"
   inkscape:export-xdpi="82.120003"
   inkscape:export-ydpi="82.120003"
   style="fill:#2e2e30" />
	</g>
	<g
   id="g16406"
   inkscape:export-filename="/home/guy/tmp/Valerio-Apertis-Slides/exports-20210301/6.png"
   inkscape:export-xdpi="82.120003"
   inkscape:export-ydpi="82.120003"
   transform="translate(301.36056,-1.421512)">
		<rect
   x="1199.592"
   y="786.90997"
   stroke-miterlimit="10"
   width="119.429"
   height="21.951"
   id="rect16376"
   style="fill:#009db7;stroke:#ffffff;stroke-miterlimit:10" />
		<rect
   x="1199.592"
   y="808.771"
   stroke-miterlimit="10"
   width="119.429"
   height="21.952"
   id="rect16378"
   style="fill:#3e3e77;stroke:#ffffff;stroke-miterlimit:10" />
		<rect
   x="1199.592"
   y="830.63098"
   stroke-miterlimit="10"
   width="119.429"
   height="21.952"
   id="rect16380"
   style="fill:#3e3e77;stroke:#ffffff;stroke-miterlimit:10" />
		<rect
   x="1199.592"
   y="852.49103"
   stroke-miterlimit="10"
   width="119.429"
   height="21.952"
   id="rect16382"
   style="fill:#009db7;stroke:#ffffff;stroke-miterlimit:10" />
		<rect
   x="1199.592"
   y="874.35199"
   stroke-miterlimit="10"
   width="119.429"
   height="21.952"
   id="rect16384"
   style="fill:#009db7;stroke:#ffffff;stroke-miterlimit:10" />
		<rect
   x="1199.592"
   y="896.21198"
   stroke-miterlimit="10"
   width="119.429"
   height="21.952"
   id="rect16386"
   style="fill:#3e3e77;stroke:#ffffff;stroke-miterlimit:10" />
		<rect
   x="1199.592"
   y="918.07202"
   stroke-miterlimit="10"
   width="119.429"
   height="21.952"
   id="rect16388"
   style="fill:#3e3e77;stroke:#ffffff;stroke-miterlimit:10" />
		<polygon
   stroke-miterlimit="10"
   points="1199.592,786.91 1214.12,772.381 1332.468,772.381 1319.021,786.91 "
   id="polygon16390"
   style="fill:#30b8c6;stroke:#ffffff;stroke-miterlimit:10" />
		<polyline
   stroke-miterlimit="10"
   points="1332.468,772.381 1319.021,786.91 1319.021,808.771     1332.468,795.262   "
   id="polyline16392"
   style="fill:#027c89;stroke:#ffffff;stroke-miterlimit:10" />
		<polyline
   stroke-miterlimit="10"
   points="1332.468,794.334 1319.021,808.861 1319.021,830.723     1332.468,817.213   "
   id="polyline16394"
   style="fill:#292954;stroke:#ffffff;stroke-miterlimit:10" />
		<polyline
   stroke-miterlimit="10"
   points="1332.468,816.286 1319.021,830.813 1319.021,852.674     1332.468,839.165   "
   id="polyline16396"
   style="fill:#292954;stroke:#ffffff;stroke-miterlimit:10" />
		<polyline
   stroke-miterlimit="10"
   points="1332.468,838.237 1319.021,852.766 1319.021,874.626     1332.468,861.117   "
   id="polyline16398"
   style="fill:#027c89;stroke:#ffffff;stroke-miterlimit:10" />
		<polyline
   stroke-miterlimit="10"
   points="1332.468,860.189 1319.021,874.717 1319.021,896.578     1332.468,883.068   "
   id="polyline16400"
   style="fill:#027c89;stroke:#ffffff;stroke-miterlimit:10" />
		<polyline
   stroke-miterlimit="10"
   points="1332.468,882.142 1319.021,896.669 1319.021,918.529     1332.468,905.021   "
   id="polyline16402"
   style="fill:#292954;stroke:#ffffff;stroke-miterlimit:10" />
		<polyline
   stroke-miterlimit="10"
   points="1332.468,904.093 1319.021,918.621 1319.021,940.481     1332.468,926.973   "
   id="polyline16404"
   style="fill:#292954;stroke:#ffffff;stroke-miterlimit:10" />
	</g>
	<g
   id="g16438"
   inkscape:export-filename="/home/guy/tmp/Valerio-Apertis-Slides/exports-20210301/6.png"
   inkscape:export-xdpi="82.120003"
   inkscape:export-ydpi="82.120003"
   transform="translate(301.36056,-1.421512)">
		<rect
   x="956.591"
   y="263.96799"
   stroke-miterlimit="10"
   width="59.834999"
   height="10.998"
   id="rect16408"
   style="fill:#009db7;stroke:#ffffff;stroke-miterlimit:10" />
		<rect
   x="956.591"
   y="274.92001"
   stroke-miterlimit="10"
   width="59.834999"
   height="10.998"
   id="rect16410"
   style="fill:#3e3e77;stroke:#ffffff;stroke-miterlimit:10" />
		<rect
   x="956.591"
   y="285.87201"
   stroke-miterlimit="10"
   width="59.834999"
   height="10.998"
   id="rect16412"
   style="fill:#3e3e77;stroke:#ffffff;stroke-miterlimit:10" />
		<rect
   x="956.591"
   y="296.82401"
   stroke-miterlimit="10"
   width="59.834999"
   height="10.998"
   id="rect16414"
   style="fill:#009db7;stroke:#ffffff;stroke-miterlimit:10" />
		<rect
   x="956.591"
   y="307.776"
   stroke-miterlimit="10"
   width="59.834999"
   height="10.998"
   id="rect16416"
   style="fill:#009db7;stroke:#ffffff;stroke-miterlimit:10" />
		<rect
   x="956.591"
   y="318.729"
   stroke-miterlimit="10"
   width="59.834999"
   height="10.998"
   id="rect16418"
   style="fill:#3e3e77;stroke:#ffffff;stroke-miterlimit:10" />
		<rect
   x="956.591"
   y="329.681"
   stroke-miterlimit="10"
   width="59.834999"
   height="10.998"
   id="rect16420"
   style="fill:#3e3e77;stroke:#ffffff;stroke-miterlimit:10" />
		<polygon
   stroke-miterlimit="10"
   points="1023.162,256.688 1016.426,263.968 956.591,263.968 963.869,256.688 "
   id="polygon16422"
   style="fill:#30b8c6;stroke:#ffffff;stroke-miterlimit:10" />
		<polyline
   stroke-miterlimit="10"
   points="1023.162,256.688 1016.426,263.968 1016.426,274.92     1023.162,268.152   "
   id="polyline16424"
   style="fill:#027c89;stroke:#ffffff;stroke-miterlimit:10" />
		<polyline
   stroke-miterlimit="10"
   points="1023.162,267.688 1016.426,274.966 1016.426,285.918     1023.162,279.149   "
   id="polyline16426"
   style="fill:#292954;stroke:#ffffff;stroke-miterlimit:10" />
		<polyline
   stroke-miterlimit="10"
   points="1023.162,278.686 1016.426,285.964 1016.426,296.916     1023.162,290.147   "
   id="polyline16428"
   style="fill:#292954;stroke:#ffffff;stroke-miterlimit:10" />
		<polyline
   stroke-miterlimit="10"
   points="1023.162,289.684 1016.426,296.962 1016.426,307.914     1023.162,301.146   "
   id="polyline16430"
   style="fill:#027c89;stroke:#ffffff;stroke-miterlimit:10" />
		<polyline
   stroke-miterlimit="10"
   points="1023.162,300.682 1016.426,307.96 1016.426,318.912     1023.162,312.144   "
   id="polyline16432"
   style="fill:#027c89;stroke:#ffffff;stroke-miterlimit:10" />
		<polyline
   stroke-miterlimit="10"
   points="1023.162,311.68 1016.426,318.958 1016.426,329.91     1023.162,323.142   "
   id="polyline16434"
   style="fill:#292954;stroke:#ffffff;stroke-miterlimit:10" />
		<polyline
   stroke-miterlimit="10"
   points="1023.162,322.677 1016.426,329.956 1016.426,340.908     1023.162,334.14   "
   id="polyline16436"
   style="fill:#292954;stroke:#ffffff;stroke-miterlimit:10" />
	</g>
	<g
   id="g16470"
   inkscape:export-filename="/home/guy/tmp/Valerio-Apertis-Slides/exports-20210301/6.png"
   inkscape:export-xdpi="82.120003"
   inkscape:export-ydpi="82.120003"
   transform="translate(301.36056,-1.421512)">
		<rect
   x="1477.681"
   y="410.16"
   stroke-miterlimit="10"
   width="59.834999"
   height="10.998"
   id="rect16440"
   style="fill:#009db7;stroke:#ffffff;stroke-miterlimit:10" />
		<rect
   x="1477.681"
   y="421.112"
   stroke-miterlimit="10"
   width="59.834999"
   height="10.998"
   id="rect16442"
   style="fill:#3e3e77;stroke:#ffffff;stroke-miterlimit:10" />
		<rect
   x="1477.681"
   y="432.064"
   stroke-miterlimit="10"
   width="59.834999"
   height="10.998"
   id="rect16444"
   style="fill:#3e3e77;stroke:#ffffff;stroke-miterlimit:10" />
		<rect
   x="1477.681"
   y="443.017"
   stroke-miterlimit="10"
   width="59.834999"
   height="10.998"
   id="rect16446"
   style="fill:#3e3e77;stroke:#ffffff;stroke-miterlimit:10" />
		<rect
   x="1477.681"
   y="453.96899"
   stroke-miterlimit="10"
   width="59.834999"
   height="10.998"
   id="rect16448"
   style="fill:#3e3e77;stroke:#ffffff;stroke-miterlimit:10" />
		<rect
   x="1477.681"
   y="464.92099"
   stroke-miterlimit="10"
   width="59.834999"
   height="10.998"
   id="rect16450"
   style="fill:#3e3e77;stroke:#ffffff;stroke-miterlimit:10" />
		<rect
   x="1477.681"
   y="475.87299"
   stroke-miterlimit="10"
   width="59.834999"
   height="10.998"
   id="rect16452"
   style="fill:#3e3e77;stroke:#ffffff;stroke-miterlimit:10" />
		<polygon
   stroke-miterlimit="10"
   points="1544.252,402.881 1537.516,410.16 1477.681,410.16 1484.959,402.881 "
   id="polygon16454"
   style="fill:#30b8c6;stroke:#ffffff;stroke-miterlimit:10" />
		<polyline
   stroke-miterlimit="10"
   points="1544.252,402.881 1537.516,410.16 1537.516,421.112     1544.252,414.345   "
   id="polyline16456"
   style="fill:#027c89;stroke:#ffffff;stroke-miterlimit:10" />
		<polyline
   stroke-miterlimit="10"
   points="1544.252,413.88 1537.516,421.158 1537.516,432.11     1544.252,425.342   "
   id="polyline16458"
   style="fill:#292954;stroke:#ffffff;stroke-miterlimit:10" />
		<polyline
   stroke-miterlimit="10"
   points="1544.252,424.878 1537.516,432.156 1537.516,443.108     1544.252,436.34   "
   id="polyline16460"
   style="fill:#292954;stroke:#ffffff;stroke-miterlimit:10" />
		<polyline
   stroke-miterlimit="10"
   points="1544.252,435.876 1537.516,443.154 1537.516,454.106     1544.252,447.339   "
   id="polyline16462"
   style="fill:#292954;stroke:#ffffff;stroke-miterlimit:10" />
		<polyline
   stroke-miterlimit="10"
   points="1544.252,446.874 1537.516,454.152 1537.516,465.104     1544.252,458.336   "
   id="polyline16464"
   style="fill:#292954;stroke:#ffffff;stroke-miterlimit:10" />
		<polyline
   stroke-miterlimit="10"
   points="1544.252,457.872 1537.516,465.15 1537.516,476.103     1544.252,469.334   "
   id="polyline16466"
   style="fill:#292954;stroke:#ffffff;stroke-miterlimit:10" />
		<polyline
   stroke-miterlimit="10"
   points="1544.252,468.869 1537.516,476.148 1537.516,487.101     1544.252,480.332   "
   id="polyline16468"
   style="fill:#292954;stroke:#ffffff;stroke-miterlimit:10" />
	</g>
	<g
   id="g16502"
   inkscape:export-filename="/home/guy/tmp/Valerio-Apertis-Slides/exports-20210301/6.png"
   inkscape:export-xdpi="82.120003"
   inkscape:export-ydpi="82.120003"
   transform="translate(301.36056,-1.421512)">
		<rect
   x="1251.069"
   y="660.784"
   stroke-miterlimit="10"
   width="26.891001"
   height="4.9419999"
   id="rect16472"
   style="fill:#009db7;stroke:#ffffff;stroke-miterlimit:10" />
		<rect
   x="1251.069"
   y="665.70599"
   stroke-miterlimit="10"
   width="26.891001"
   height="4.9419999"
   id="rect16474"
   style="fill:#3e3e77;stroke:#ffffff;stroke-miterlimit:10" />
		<rect
   x="1251.069"
   y="670.62799"
   stroke-miterlimit="10"
   width="26.891001"
   height="4.9419999"
   id="rect16476"
   style="fill:#3e3e77;stroke:#ffffff;stroke-miterlimit:10" />
		<rect
   x="1251.069"
   y="675.54999"
   stroke-miterlimit="10"
   width="26.891001"
   height="4.9419999"
   id="rect16478"
   style="fill:#3e3e77;stroke:#ffffff;stroke-miterlimit:10" />
		<rect
   x="1251.069"
   y="680.47198"
   stroke-miterlimit="10"
   width="26.891001"
   height="4.9419999"
   id="rect16480"
   style="fill:#3e3e77;stroke:#ffffff;stroke-miterlimit:10" />
		<rect
   x="1251.069"
   y="685.39398"
   stroke-miterlimit="10"
   width="26.891001"
   height="4.9419999"
   id="rect16482"
   style="fill:#3e3e77;stroke:#ffffff;stroke-miterlimit:10" />
		<rect
   x="1251.069"
   y="690.315"
   stroke-miterlimit="10"
   width="26.891001"
   height="4.9419999"
   id="rect16484"
   style="fill:#009db7;stroke:#ffffff;stroke-miterlimit:10" />
		<polygon
   stroke-miterlimit="10"
   points="1280.987,657.513 1277.96,660.784 1251.069,660.784 1254.341,657.513 "
   id="polygon16486"
   style="fill:#30b8c6;stroke:#ffffff;stroke-miterlimit:10" />
		<polyline
   stroke-miterlimit="10"
   points="1280.987,657.513 1277.96,660.784 1277.96,665.706     1280.987,662.664   "
   id="polyline16488"
   style="fill:#027c89;stroke:#ffffff;stroke-miterlimit:10" />
		<polyline
   stroke-miterlimit="10"
   points="1280.987,662.455 1277.96,665.727 1277.96,670.648     1280.987,667.606   "
   id="polyline16490"
   style="fill:#292954;stroke:#ffffff;stroke-miterlimit:10" />
		<polyline
   stroke-miterlimit="10"
   points="1280.987,667.398 1277.96,670.669 1277.96,675.591     1280.987,672.549   "
   id="polyline16492"
   style="fill:#292954;stroke:#ffffff;stroke-miterlimit:10" />
		<polyline
   stroke-miterlimit="10"
   points="1280.987,672.341 1277.96,675.611 1277.96,680.533     1280.987,677.492   "
   id="polyline16494"
   style="fill:#292954;stroke:#ffffff;stroke-miterlimit:10" />
		<polyline
   stroke-miterlimit="10"
   points="1280.987,677.283 1277.96,680.555 1277.96,685.477     1280.987,682.435   "
   id="polyline16496"
   style="fill:#292954;stroke:#ffffff;stroke-miterlimit:10" />
		<polyline
   stroke-miterlimit="10"
   points="1280.987,682.226 1277.96,685.497 1277.96,690.419     1280.987,687.377   "
   id="polyline16498"
   style="fill:#292954;stroke:#ffffff;stroke-miterlimit:10" />
		<polyline
   stroke-miterlimit="10"
   points="1280.987,687.168 1277.96,690.439 1277.96,695.361     1280.987,692.319   "
   id="polyline16500"
   style="fill:#027c89;stroke:#ffffff;stroke-miterlimit:10" />
	</g>
	<g
   id="g16534"
   inkscape:export-filename="/home/guy/tmp/Valerio-Apertis-Slides/exports-20210301/6.png"
   inkscape:export-xdpi="82.120003"
   inkscape:export-ydpi="82.120003"
   transform="translate(301.36056,-1.421512)">
		<rect
   x="1093.322"
   y="283.875"
   stroke-miterlimit="10"
   width="26.891001"
   height="4.9419999"
   id="rect16504"
   style="fill:#009db7;stroke:#ffffff;stroke-miterlimit:10" />
		<rect
   x="1093.322"
   y="288.797"
   stroke-miterlimit="10"
   width="26.891001"
   height="4.9419999"
   id="rect16506"
   style="fill:#3e3e77;stroke:#ffffff;stroke-miterlimit:10" />
		<rect
   x="1093.322"
   y="293.71899"
   stroke-miterlimit="10"
   width="26.891001"
   height="4.9419999"
   id="rect16508"
   style="fill:#3e3e77;stroke:#ffffff;stroke-miterlimit:10" />
		<rect
   x="1093.322"
   y="298.64099"
   stroke-miterlimit="10"
   width="26.891001"
   height="4.9419999"
   id="rect16510"
   style="fill:#009db7;stroke:#ffffff;stroke-miterlimit:10" />
		<rect
   x="1093.322"
   y="303.56201"
   stroke-miterlimit="10"
   width="26.891001"
   height="4.9419999"
   id="rect16512"
   style="fill:#3e3e77;stroke:#ffffff;stroke-miterlimit:10" />
		<rect
   x="1093.322"
   y="308.48401"
   stroke-miterlimit="10"
   width="26.891001"
   height="4.9419999"
   id="rect16514"
   style="fill:#3e3e77;stroke:#ffffff;stroke-miterlimit:10" />
		<rect
   x="1093.322"
   y="313.40601"
   stroke-miterlimit="10"
   width="26.891001"
   height="4.9419999"
   id="rect16516"
   style="fill:#009db7;stroke:#ffffff;stroke-miterlimit:10" />
		<polygon
   stroke-miterlimit="10"
   points="1123.24,280.604 1120.213,283.875 1093.322,283.875 1096.594,280.604 "
   id="polygon16518"
   style="fill:#30b8c6;stroke:#ffffff;stroke-miterlimit:10" />
		<polyline
   stroke-miterlimit="10"
   points="1123.24,280.604 1120.213,283.875 1120.213,288.797     1123.24,285.755   "
   id="polyline16520"
   style="fill:#027c89;stroke:#ffffff;stroke-miterlimit:10" />
		<polyline
   stroke-miterlimit="10"
   points="1123.24,285.546 1120.213,288.817 1120.213,293.739     1123.24,290.697   "
   id="polyline16522"
   style="fill:#292954;stroke:#ffffff;stroke-miterlimit:10" />
		<polyline
   stroke-miterlimit="10"
   points="1123.24,290.489 1120.213,293.76 1120.213,298.682     1123.24,295.64   "
   id="polyline16524"
   style="fill:#292954;stroke:#ffffff;stroke-miterlimit:10" />
		<polyline
   stroke-miterlimit="10"
   points="1123.24,295.432 1120.213,298.702 1120.213,303.624     1123.24,300.583   "
   id="polyline16526"
   style="fill:#027c89;stroke:#ffffff;stroke-miterlimit:10" />
		<polyline
   stroke-miterlimit="10"
   points="1123.24,300.374 1120.213,303.646 1120.213,308.567     1123.24,305.525   "
   id="polyline16528"
   style="fill:#292954;stroke:#ffffff;stroke-miterlimit:10" />
		<polyline
   stroke-miterlimit="10"
   points="1123.24,305.316 1120.213,308.588 1120.213,313.51     1123.24,310.468   "
   id="polyline16530"
   style="fill:#292954;stroke:#ffffff;stroke-miterlimit:10" />
		<polyline
   stroke-miterlimit="10"
   points="1123.24,310.259 1120.213,313.53 1120.213,318.452     1123.24,315.41   "
   id="polyline16532"
   style="fill:#027c89;stroke:#ffffff;stroke-miterlimit:10" />
	</g>
	<g
   id="g16566"
   inkscape:export-filename="/home/guy/tmp/Valerio-Apertis-Slides/exports-20210301/6.png"
   inkscape:export-xdpi="82.120003"
   inkscape:export-ydpi="82.120003"
   transform="translate(301.36056,-1.421512)">
		<rect
   x="440.168"
   y="819.88599"
   stroke-miterlimit="10"
   width="40.335999"
   height="7.4130001"
   id="rect16536"
   style="fill:#009db7;stroke:#ffffff;stroke-miterlimit:10" />
		<rect
   x="440.168"
   y="827.26898"
   stroke-miterlimit="10"
   width="40.335999"
   height="7.4130001"
   id="rect16538"
   style="fill:#3e3e77;stroke:#ffffff;stroke-miterlimit:10" />
		<rect
   x="440.168"
   y="834.651"
   stroke-miterlimit="10"
   width="40.335999"
   height="7.4130001"
   id="rect16540"
   style="fill:#3e3e77;stroke:#ffffff;stroke-miterlimit:10" />
		<rect
   x="440.168"
   y="842.034"
   stroke-miterlimit="10"
   width="40.335999"
   height="7.4130001"
   id="rect16542"
   style="fill:#009db7;stroke:#ffffff;stroke-miterlimit:10" />
		<rect
   x="440.168"
   y="849.41602"
   stroke-miterlimit="10"
   width="40.335999"
   height="7.414"
   id="rect16544"
   style="fill:#3e3e77;stroke:#ffffff;stroke-miterlimit:10" />
		<rect
   x="440.168"
   y="856.79901"
   stroke-miterlimit="10"
   width="40.335999"
   height="7.414"
   id="rect16546"
   style="fill:#3e3e77;stroke:#ffffff;stroke-miterlimit:10" />
		<rect
   x="440.168"
   y="864.18201"
   stroke-miterlimit="10"
   width="40.335999"
   height="7.414"
   id="rect16548"
   style="fill:#009db7;stroke:#ffffff;stroke-miterlimit:10" />
		<polygon
   stroke-miterlimit="10"
   points="485.045,814.979 480.504,819.886 440.168,819.886 445.076,814.979 "
   id="polygon16550"
   style="fill:#30b8c6;stroke:#ffffff;stroke-miterlimit:10" />
		<polyline
   stroke-miterlimit="10"
   points="485.045,814.979 480.504,819.886 480.504,827.269     485.045,822.705   "
   id="polyline16552"
   style="fill:#027c89;stroke:#ffffff;stroke-miterlimit:10" />
		<polyline
   stroke-miterlimit="10"
   points="485.045,822.393 480.504,827.299 480.504,834.682     485.045,830.119   "
   id="polyline16554"
   style="fill:#292954;stroke:#ffffff;stroke-miterlimit:10" />
		<polyline
   stroke-miterlimit="10"
   points="485.045,829.807 480.504,834.713 480.504,842.096     485.045,837.532   "
   id="polyline16556"
   style="fill:#292954;stroke:#ffffff;stroke-miterlimit:10" />
		<polyline
   stroke-miterlimit="10"
   points="485.045,837.221 480.504,842.126 480.504,849.509     485.045,844.947   "
   id="polyline16558"
   style="fill:#027c89;stroke:#ffffff;stroke-miterlimit:10" />
		<polyline
   stroke-miterlimit="10"
   points="485.045,844.634 480.504,849.541 480.504,856.924     485.045,852.361   "
   id="polyline16560"
   style="fill:#292954;stroke:#ffffff;stroke-miterlimit:10" />
		<polyline
   stroke-miterlimit="10"
   points="485.045,852.047 480.504,856.955 480.504,864.338     485.045,859.774   "
   id="polyline16562"
   style="fill:#292954;stroke:#ffffff;stroke-miterlimit:10" />
		<polyline
   stroke-miterlimit="10"
   points="485.045,859.461 480.504,864.368 480.504,871.751     485.045,867.188   "
   id="polyline16564"
   style="fill:#027c89;stroke:#ffffff;stroke-miterlimit:10" />
	</g>
	<g
   id="g16598"
   inkscape:export-filename="/home/guy/tmp/Valerio-Apertis-Slides/exports-20210301/6.png"
   inkscape:export-xdpi="82.120003"
   inkscape:export-ydpi="82.120003"
   transform="translate(301.36056,-1.421512)">
		<rect
   x="848.26898"
   y="241.034"
   stroke-miterlimit="10"
   width="26.891001"
   height="4.9419999"
   id="rect16568"
   style="fill:#009db7;stroke:#ffffff;stroke-miterlimit:10" />
		<rect
   x="848.26898"
   y="245.95599"
   stroke-miterlimit="10"
   width="26.891001"
   height="4.9419999"
   id="rect16570"
   style="fill:#3e3e77;stroke:#ffffff;stroke-miterlimit:10" />
		<rect
   x="848.26898"
   y="250.87801"
   stroke-miterlimit="10"
   width="26.891001"
   height="4.9419999"
   id="rect16572"
   style="fill:#009db7;stroke:#ffffff;stroke-miterlimit:10" />
		<rect
   x="848.26898"
   y="255.8"
   stroke-miterlimit="10"
   width="26.891001"
   height="4.9419999"
   id="rect16574"
   style="fill:#3e3e77;stroke:#ffffff;stroke-miterlimit:10" />
		<rect
   x="848.26898"
   y="260.72198"
   stroke-miterlimit="10"
   width="26.891001"
   height="4.9419999"
   id="rect16576"
   style="fill:#009db7;stroke:#ffffff;stroke-miterlimit:10" />
		<rect
   x="848.26898"
   y="265.64401"
   stroke-miterlimit="10"
   width="26.891001"
   height="4.9419999"
   id="rect16578"
   style="fill:#009db7;stroke:#ffffff;stroke-miterlimit:10" />
		<rect
   x="848.26898"
   y="270.565"
   stroke-miterlimit="10"
   width="26.891001"
   height="4.9419999"
   id="rect16580"
   style="fill:#009db7;stroke:#ffffff;stroke-miterlimit:10" />
		<polygon
   stroke-miterlimit="10"
   points="878.187,237.763 875.159,241.034 848.269,241.034 851.54,237.763 "
   id="polygon16582"
   style="fill:#30b8c6;stroke:#ffffff;stroke-miterlimit:10" />
		<polyline
   stroke-miterlimit="10"
   points="878.187,237.763 875.159,241.034 875.159,245.956     878.187,242.914   "
   id="polyline16584"
   style="fill:#027c89;stroke:#ffffff;stroke-miterlimit:10" />
		<polyline
   stroke-miterlimit="10"
   points="878.187,242.705 875.159,245.977 875.159,250.898     878.187,247.856   "
   id="polyline16586"
   style="fill:#292954;stroke:#ffffff;stroke-miterlimit:10" />
		<polyline
   stroke-miterlimit="10"
   points="878.187,247.648 875.159,250.919 875.159,255.841     878.187,252.799   "
   id="polyline16588"
   style="fill:#027c89;stroke:#ffffff;stroke-miterlimit:10" />
		<polyline
   stroke-miterlimit="10"
   points="878.187,252.591 875.159,255.861 875.159,260.783     878.187,257.742   "
   id="polyline16590"
   style="fill:#292954;stroke:#ffffff;stroke-miterlimit:10" />
		<polyline
   stroke-miterlimit="10"
   points="878.187,257.533 875.159,260.805 875.159,265.727     878.187,262.685   "
   id="polyline16592"
   style="fill:#027c89;stroke:#ffffff;stroke-miterlimit:10" />
		<polyline
   stroke-miterlimit="10"
   points="878.187,262.476 875.159,265.747 875.159,270.669     878.187,267.627   "
   id="polyline16594"
   style="fill:#027c89;stroke:#ffffff;stroke-miterlimit:10" />
		<polyline
   stroke-miterlimit="10"
   points="878.187,267.418 875.159,270.689 875.159,275.611     878.187,272.569   "
   id="polyline16596"
   style="fill:#027c89;stroke:#ffffff;stroke-miterlimit:10" />
	</g>
	<g
   id="g16630"
   inkscape:export-filename="/home/guy/tmp/Valerio-Apertis-Slides/exports-20210301/6.png"
   inkscape:export-xdpi="82.120003"
   inkscape:export-ydpi="82.120003"
   transform="translate(301.36056,-1.421512)">
		<rect
   x="306.72501"
   y="772.659"
   stroke-miterlimit="10"
   width="26.891001"
   height="4.9419999"
   id="rect16600"
   style="fill:#009db7;stroke:#ffffff;stroke-miterlimit:10" />
		<rect
   x="306.72501"
   y="777.58099"
   stroke-miterlimit="10"
   width="26.891001"
   height="4.9419999"
   id="rect16602"
   style="fill:#3e3e77;stroke:#ffffff;stroke-miterlimit:10" />
		<rect
   x="306.72501"
   y="782.50299"
   stroke-miterlimit="10"
   width="26.891001"
   height="4.9419999"
   id="rect16604"
   style="fill:#009db7;stroke:#ffffff;stroke-miterlimit:10" />
		<rect
   x="306.72501"
   y="787.42499"
   stroke-miterlimit="10"
   width="26.891001"
   height="4.9419999"
   id="rect16606"
   style="fill:#3e3e77;stroke:#ffffff;stroke-miterlimit:10" />
		<rect
   x="306.72501"
   y="792.34698"
   stroke-miterlimit="10"
   width="26.891001"
   height="4.9419999"
   id="rect16608"
   style="fill:#009db7;stroke:#ffffff;stroke-miterlimit:10" />
		<rect
   x="306.72501"
   y="797.26898"
   stroke-miterlimit="10"
   width="26.891001"
   height="4.9419999"
   id="rect16610"
   style="fill:#009db7;stroke:#ffffff;stroke-miterlimit:10" />
		<rect
   x="306.72501"
   y="802.19"
   stroke-miterlimit="10"
   width="26.891001"
   height="4.9419999"
   id="rect16612"
   style="fill:#009db7;stroke:#ffffff;stroke-miterlimit:10" />
		<polygon
   stroke-miterlimit="10"
   points="336.643,769.388 333.615,772.659 306.725,772.659 309.996,769.388 "
   id="polygon16614"
   style="fill:#30b8c6;stroke:#ffffff;stroke-miterlimit:10" />
		<polyline
   stroke-miterlimit="10"
   points="336.643,769.388 333.615,772.659 333.615,777.581     336.643,774.539   "
   id="polyline16616"
   style="fill:#027c89;stroke:#ffffff;stroke-miterlimit:10" />
		<polyline
   stroke-miterlimit="10"
   points="336.643,774.33 333.615,777.602 333.615,782.523     336.643,779.481   "
   id="polyline16618"
   style="fill:#292954;stroke:#ffffff;stroke-miterlimit:10" />
		<polyline
   stroke-miterlimit="10"
   points="336.643,779.273 333.615,782.544 333.615,787.466     336.643,784.424   "
   id="polyline16620"
   style="fill:#027c89;stroke:#ffffff;stroke-miterlimit:10" />
		<polyline
   stroke-miterlimit="10"
   points="336.643,784.216 333.615,787.486 333.615,792.408     336.643,789.367   "
   id="polyline16622"
   style="fill:#292954;stroke:#ffffff;stroke-miterlimit:10" />
		<polyline
   stroke-miterlimit="10"
   points="336.643,789.158 333.615,792.43 333.615,797.352     336.643,794.31   "
   id="polyline16624"
   style="fill:#027c89;stroke:#ffffff;stroke-miterlimit:10" />
		<polyline
   stroke-miterlimit="10"
   points="336.643,794.101 333.615,797.372 333.615,802.294     336.643,799.252   "
   id="polyline16626"
   style="fill:#027c89;stroke:#ffffff;stroke-miterlimit:10" />
		<polyline
   stroke-miterlimit="10"
   points="336.643,799.043 333.615,802.314 333.615,807.236     336.643,804.194   "
   id="polyline16628"
   style="fill:#027c89;stroke:#ffffff;stroke-miterlimit:10" />
	</g>
	<g
   id="g16662"
   inkscape:export-filename="/home/guy/tmp/Valerio-Apertis-Slides/exports-20210301/6.png"
   inkscape:export-xdpi="82.120003"
   inkscape:export-ydpi="82.120003"
   transform="translate(301.36056,-1.421512)">
		<rect
   x="928.72998"
   y="818.95001"
   stroke-miterlimit="10"
   width="59.834999"
   height="10.998"
   id="rect16632"
   style="fill:#009db7;stroke:#ffffff;stroke-miterlimit:10" />
		<rect
   x="928.72998"
   y="829.90198"
   stroke-miterlimit="10"
   width="59.834999"
   height="10.998"
   id="rect16634"
   style="fill:#3e3e77;stroke:#ffffff;stroke-miterlimit:10" />
		<rect
   x="928.72998"
   y="840.854"
   stroke-miterlimit="10"
   width="59.834999"
   height="10.998"
   id="rect16636"
   style="fill:#3e3e77;stroke:#ffffff;stroke-miterlimit:10" />
		<rect
   x="928.72998"
   y="851.80701"
   stroke-miterlimit="10"
   width="59.834999"
   height="10.998"
   id="rect16638"
   style="fill:#009db7;stroke:#ffffff;stroke-miterlimit:10" />
		<rect
   x="928.72998"
   y="862.75897"
   stroke-miterlimit="10"
   width="59.834999"
   height="10.998"
   id="rect16640"
   style="fill:#009db7;stroke:#ffffff;stroke-miterlimit:10" />
		<rect
   x="928.72998"
   y="873.711"
   stroke-miterlimit="10"
   width="59.834999"
   height="10.998"
   id="rect16642"
   style="fill:#009db7;stroke:#ffffff;stroke-miterlimit:10" />
		<rect
   x="928.72998"
   y="884.66302"
   stroke-miterlimit="10"
   width="59.834999"
   height="10.998"
   id="rect16644"
   style="fill:#3e3e77;stroke:#ffffff;stroke-miterlimit:10" />
		<polygon
   stroke-miterlimit="10"
   points="995.302,811.671 988.565,818.95 928.73,818.95 936.009,811.671 "
   id="polygon16646"
   style="fill:#30b8c6;stroke:#ffffff;stroke-miterlimit:10" />
		<polyline
   stroke-miterlimit="10"
   points="995.302,811.671 988.565,818.95 988.565,829.902     995.302,823.135   "
   id="polyline16648"
   style="fill:#027c89;stroke:#ffffff;stroke-miterlimit:10" />
		<polyline
   stroke-miterlimit="10"
   points="995.302,822.67 988.565,829.948 988.565,840.9     995.302,834.132   "
   id="polyline16650"
   style="fill:#292954;stroke:#ffffff;stroke-miterlimit:10" />
		<polyline
   stroke-miterlimit="10"
   points="995.302,833.668 988.565,840.946 988.565,851.898     995.302,845.13   "
   id="polyline16652"
   style="fill:#292954;stroke:#ffffff;stroke-miterlimit:10" />
		<polyline
   stroke-miterlimit="10"
   points="995.302,844.666 988.565,851.944 988.565,862.896     995.302,856.129   "
   id="polyline16654"
   style="fill:#027c89;stroke:#ffffff;stroke-miterlimit:10" />
		<polyline
   stroke-miterlimit="10"
   points="995.302,855.664 988.565,862.942 988.565,873.895     995.302,867.126   "
   id="polyline16656"
   style="fill:#027c89;stroke:#ffffff;stroke-miterlimit:10" />
		<polyline
   stroke-miterlimit="10"
   points="995.302,866.662 988.565,873.94 988.565,884.893     995.302,878.124   "
   id="polyline16658"
   style="fill:#027c89;stroke:#ffffff;stroke-miterlimit:10" />
		<polyline
   stroke-miterlimit="10"
   points="995.302,877.659 988.565,884.938 988.565,895.891     995.302,889.122   "
   id="polyline16660"
   style="fill:#292954;stroke:#ffffff;stroke-miterlimit:10" />
	</g>
	<g
   id="g16694"
   inkscape:export-filename="/home/guy/tmp/Valerio-Apertis-Slides/exports-20210301/6.png"
   inkscape:export-xdpi="82.120003"
   inkscape:export-ydpi="82.120003"
   transform="translate(301.36056,-1.421512)">
		<rect
   x="410.25101"
   y="668.85999"
   stroke-miterlimit="10"
   width="59.834999"
   height="10.998"
   id="rect16664"
   style="fill:#3e3e77;stroke:#ffffff;stroke-miterlimit:10" />
		<rect
   x="410.25101"
   y="679.81201"
   stroke-miterlimit="10"
   width="59.834999"
   height="10.998"
   id="rect16666"
   style="fill:#3e3e77;stroke:#ffffff;stroke-miterlimit:10" />
		<rect
   x="410.25101"
   y="690.76501"
   stroke-miterlimit="10"
   width="59.834999"
   height="10.998"
   id="rect16668"
   style="fill:#3e3e77;stroke:#ffffff;stroke-miterlimit:10" />
		<rect
   x="410.25101"
   y="701.71698"
   stroke-miterlimit="10"
   width="59.834999"
   height="10.998"
   id="rect16670"
   style="fill:#009db7;stroke:#ffffff;stroke-miterlimit:10" />
		<rect
   x="410.25101"
   y="712.66901"
   stroke-miterlimit="10"
   width="59.834999"
   height="10.998"
   id="rect16672"
   style="fill:#3e3e77;stroke:#ffffff;stroke-miterlimit:10" />
		<rect
   x="410.25101"
   y="723.62097"
   stroke-miterlimit="10"
   width="59.834999"
   height="10.998"
   id="rect16674"
   style="fill:#009db7;stroke:#ffffff;stroke-miterlimit:10" />
		<rect
   x="410.25101"
   y="734.573"
   stroke-miterlimit="10"
   width="59.834999"
   height="10.998"
   id="rect16676"
   style="fill:#3e3e77;stroke:#ffffff;stroke-miterlimit:10" />
		<polygon
   stroke-miterlimit="10"
   points="476.822,661.581 470.086,668.86 410.251,668.86 417.529,661.581 "
   id="polygon16678"
   style="fill:#5f5f9b;stroke:#ffffff;stroke-miterlimit:10" />
		<polyline
   stroke-miterlimit="10"
   points="476.822,661.581 470.086,668.86 470.086,679.812     476.822,673.045   "
   id="polyline16680"
   style="fill:#292954;stroke:#ffffff;stroke-miterlimit:10" />
		<polyline
   stroke-miterlimit="10"
   points="476.822,672.58 470.086,679.858 470.086,690.811     476.822,684.042   "
   id="polyline16682"
   style="fill:#292954;stroke:#ffffff;stroke-miterlimit:10" />
		<polyline
   stroke-miterlimit="10"
   points="476.822,683.578 470.086,690.856 470.086,701.809     476.822,695.04   "
   id="polyline16684"
   style="fill:#292954;stroke:#ffffff;stroke-miterlimit:10" />
		<polyline
   stroke-miterlimit="10"
   points="476.822,694.576 470.086,701.854 470.086,712.807     476.822,706.039   "
   id="polyline16686"
   style="fill:#027c89;stroke:#ffffff;stroke-miterlimit:10" />
		<polyline
   stroke-miterlimit="10"
   points="476.822,705.574 470.086,712.853 470.086,723.805     476.822,717.036   "
   id="polyline16688"
   style="fill:#292954;stroke:#ffffff;stroke-miterlimit:10" />
		<polyline
   stroke-miterlimit="10"
   points="476.822,716.572 470.086,723.851 470.086,734.803     476.822,728.034   "
   id="polyline16690"
   style="fill:#027c89;stroke:#ffffff;stroke-miterlimit:10" />
		<polyline
   stroke-miterlimit="10"
   points="476.822,727.569 470.086,734.849 470.086,745.801     476.822,739.032   "
   id="polyline16692"
   style="fill:#292954;stroke:#ffffff;stroke-miterlimit:10" />
	</g>
	<g
   id="g16726"
   inkscape:export-filename="/home/guy/tmp/Valerio-Apertis-Slides/exports-20210301/6.png"
   inkscape:export-xdpi="82.120003"
   inkscape:export-ydpi="82.120003"
   transform="translate(301.36056,-1.421512)">
		<rect
   x="222.082"
   y="421.52701"
   stroke-miterlimit="10"
   width="59.834999"
   height="10.998"
   id="rect16696"
   style="fill:#009db7;stroke:#ffffff;stroke-miterlimit:10" />
		<rect
   x="222.082"
   y="432.479"
   stroke-miterlimit="10"
   width="59.834999"
   height="10.998"
   id="rect16698"
   style="fill:#3e3e77;stroke:#ffffff;stroke-miterlimit:10" />
		<rect
   x="222.082"
   y="443.43201"
   stroke-miterlimit="10"
   width="59.834999"
   height="10.998"
   id="rect16700"
   style="fill:#3e3e77;stroke:#ffffff;stroke-miterlimit:10" />
		<rect
   x="222.082"
   y="454.384"
   stroke-miterlimit="10"
   width="59.834999"
   height="10.998"
   id="rect16702"
   style="fill:#3e3e77;stroke:#ffffff;stroke-miterlimit:10" />
		<rect
   x="222.082"
   y="465.336"
   stroke-miterlimit="10"
   width="59.834999"
   height="10.998"
   id="rect16704"
   style="fill:#009db7;stroke:#ffffff;stroke-miterlimit:10" />
		<rect
   x="222.082"
   y="476.28799"
   stroke-miterlimit="10"
   width="59.834999"
   height="10.998"
   id="rect16706"
   style="fill:#3e3e77;stroke:#ffffff;stroke-miterlimit:10" />
		<rect
   x="222.082"
   y="487.23999"
   stroke-miterlimit="10"
   width="59.834999"
   height="10.998"
   id="rect16708"
   style="fill:#3e3e77;stroke:#ffffff;stroke-miterlimit:10" />
		<polygon
   stroke-miterlimit="10"
   points="288.653,414.248 281.917,421.527 222.082,421.527 229.36,414.248 "
   id="polygon16710"
   style="fill:#30b8c6;stroke:#ffffff;stroke-miterlimit:10" />
		<polyline
   stroke-miterlimit="10"
   points="288.653,414.248 281.917,421.527 281.917,432.479     288.653,425.712   "
   id="polyline16712"
   style="fill:#027c89;stroke:#ffffff;stroke-miterlimit:10" />
		<polyline
   stroke-miterlimit="10"
   points="288.653,425.247 281.917,432.525 281.917,443.478     288.653,436.709   "
   id="polyline16714"
   style="fill:#292954;stroke:#ffffff;stroke-miterlimit:10" />
		<polyline
   stroke-miterlimit="10"
   points="288.653,436.245 281.917,443.523 281.917,454.476     288.653,447.707   "
   id="polyline16716"
   style="fill:#292954;stroke:#ffffff;stroke-miterlimit:10" />
		<polyline
   stroke-miterlimit="10"
   points="288.653,447.243 281.917,454.521 281.917,465.474     288.653,458.706   "
   id="polyline16718"
   style="fill:#292954;stroke:#ffffff;stroke-miterlimit:10" />
		<polyline
   stroke-miterlimit="10"
   points="288.653,458.241 281.917,465.52 281.917,476.472     288.653,469.703   "
   id="polyline16720"
   style="fill:#027c89;stroke:#ffffff;stroke-miterlimit:10" />
		<polyline
   stroke-miterlimit="10"
   points="288.653,469.239 281.917,476.518 281.917,487.47     288.653,480.701   "
   id="polyline16722"
   style="fill:#292954;stroke:#ffffff;stroke-miterlimit:10" />
		<polyline
   stroke-miterlimit="10"
   points="288.653,480.236 281.917,487.516 281.917,498.468     288.653,491.699   "
   id="polyline16724"
   style="fill:#292954;stroke:#ffffff;stroke-miterlimit:10" />
	</g>
	<g
   id="g16758"
   inkscape:export-filename="/home/guy/tmp/Valerio-Apertis-Slides/exports-20210301/6.png"
   inkscape:export-xdpi="82.120003"
   inkscape:export-ydpi="82.120003"
   transform="translate(301.36056,-1.421512)">
		<rect
   x="627.38599"
   y="270.15201"
   stroke-miterlimit="10"
   width="119.429"
   height="21.951"
   id="rect16728"
   style="fill:#3e3e77;stroke:#ffffff;stroke-miterlimit:10" />
		<rect
   x="627.38599"
   y="292.013"
   stroke-miterlimit="10"
   width="119.429"
   height="21.952"
   id="rect16730"
   style="fill:#3e3e77;stroke:#ffffff;stroke-miterlimit:10" />
		<rect
   x="627.38599"
   y="313.87299"
   stroke-miterlimit="10"
   width="119.429"
   height="21.952"
   id="rect16732"
   style="fill:#3e3e77;stroke:#ffffff;stroke-miterlimit:10" />
		<rect
   x="627.38599"
   y="335.733"
   stroke-miterlimit="10"
   width="119.429"
   height="21.952"
   id="rect16734"
   style="fill:#009db7;stroke:#ffffff;stroke-miterlimit:10" />
		<rect
   x="627.38599"
   y="357.59399"
   stroke-miterlimit="10"
   width="119.429"
   height="21.952"
   id="rect16736"
   style="fill:#3e3e77;stroke:#ffffff;stroke-miterlimit:10" />
		<rect
   x="627.38599"
   y="379.45401"
   stroke-miterlimit="10"
   width="119.429"
   height="21.952"
   id="rect16738"
   style="fill:#009db7;stroke:#ffffff;stroke-miterlimit:10" />
		<rect
   x="627.38599"
   y="401.314"
   stroke-miterlimit="10"
   width="119.429"
   height="21.952"
   id="rect16740"
   style="fill:#009db7;stroke:#ffffff;stroke-miterlimit:10" />
		<polygon
   stroke-miterlimit="10"
   points="760.262,255.623 746.814,270.152 627.386,270.152 641.914,255.623 "
   id="polygon16742"
   style="fill:#5f5f9b;stroke:#ffffff;stroke-miterlimit:10" />
		<polyline
   stroke-miterlimit="10"
   points="760.262,255.623 746.814,270.152 746.814,292.013     760.262,278.504   "
   id="polyline16744"
   style="fill:#292954;stroke:#ffffff;stroke-miterlimit:10" />
		<polyline
   stroke-miterlimit="10"
   points="760.262,277.576 746.814,292.104 746.814,313.965     760.262,300.455   "
   id="polyline16746"
   style="fill:#292954;stroke:#ffffff;stroke-miterlimit:10" />
		<polyline
   stroke-miterlimit="10"
   points="760.262,299.528 746.814,314.056 746.814,335.916     760.262,322.407   "
   id="polyline16748"
   style="fill:#292954;stroke:#ffffff;stroke-miterlimit:10" />
		<polyline
   stroke-miterlimit="10"
   points="760.262,321.479 746.814,336.008 746.814,357.868     760.262,344.359   "
   id="polyline16750"
   style="fill:#027c89;stroke:#ffffff;stroke-miterlimit:10" />
		<polyline
   stroke-miterlimit="10"
   points="760.262,343.432 746.814,357.959 746.814,379.82     760.262,366.311   "
   id="polyline16752"
   style="fill:#292954;stroke:#ffffff;stroke-miterlimit:10" />
		<polyline
   stroke-miterlimit="10"
   points="760.262,365.384 746.814,379.911 746.814,401.771     760.262,388.263   "
   id="polyline16754"
   style="fill:#027c89;stroke:#ffffff;stroke-miterlimit:10" />
		<polyline
   stroke-miterlimit="10"
   points="760.262,387.335 746.814,401.863 746.814,423.724     760.262,410.215   "
   id="polyline16756"
   style="fill:#027c89;stroke:#ffffff;stroke-miterlimit:10" />
	</g>
</g>
</svg>